/* XPM */
static char * battery_on_6_xpm[] = {
"24 16 4 1",
" 	c None",
".	c #707880",
"+	c #8C9440",
"@	c #E5E5E5",
"                        ",
" ....................   ",
" .                  .   ",
" . ++++++++++++     .   ",
" . ++++++++++++     ... ",
" . +++++++@++++ @     . ",
" . ++++++@@@++@@      . ",
" . +++++@@@@@@@       . ",
" . ++++@@@@@@@+       . ",
" . +++@@++@@@++       . ",
" . ++@+++++@+++       . ",
" . ++++++++++++     ... ",
" . ++++++++++++     .   ",
" .                  .   ",
" ....................   ",
"                        "};
