/* XPM */
static char * battery_on_0_xpm[] = {
"24 16 3 1",
" 	c None",
".	c #707880",
"+	c #E5E5E5",
"                        ",
" ....................   ",
" .                  .   ",
" .                  .   ",
" .                  ... ",
" .        +     +     . ",
" .       +++  ++      . ",
" .      +++++++       . ",
" .     +++++++        . ",
" .    ++  +++         . ",
" .   +     +          . ",
" .                  ... ",
" .                  .   ",
" .                  .   ",
" ....................   ",
"                        "};
